<?xml version="1.0" encoding="utf-8"?>
<!-- Generator: Adobe Illustrator 24.1.2, SVG Export Plug-In . SVG Version: 6.00 Build 0)  -->
<svg version="1.1" id="Capa_1" xmlns="http://www.w3.org/2000/svg" xmlns:xlink="http://www.w3.org/1999/xlink" x="0px" y="0px"
	 viewBox="0 0 1244.6 754" style="enable-background:new 0 0 1244.6 754;" xml:space="preserve">
<style type="text/css">
	.st0{fill:#B05DB1;}
	.st1{fill:#F52916;}
	.st2{fill:#00A549;}
	.st3{fill:#0093DC;}
	.st4{fill:#F68000;}
	.st5{fill:#00A59A;}
	.st6{fill:#FFFFFF;}
</style>
<g>
	<path class="st0" d="M775.2,296.9L759.7,74.5C757.5,42.9,730,19,698.4,21.2L240.7,53.2c-31.6,2.2-55.5,29.7-53.3,61.3l15.5,222.4
		c2.2,31.6,29.7,55.5,61.3,53.3l320.2-22.3l52.2,91.9l15.1-96.1l-0.1-0.5l70.3-4.9C753.5,356,777.4,328.5,775.2,296.9z"/>
	<path class="st1" d="M103.7,618.6c-1.3,5.3-4.8,7.5-10.1,7.5H35.3c-4.4,0-7.9-3.5-7.9-7.9c0-4,1.3-7.9,4.4-17.6l79.8-249.2
		c2.2-6.2,4.9-7.9,9.7-7.9h60c4.9,0,7.5,1.8,9.7,7.9l79.8,249.2c3.1,9.7,4.4,13.7,4.4,17.6c0,4.4-3.5,7.9-7.9,7.9h-58.2
		c-5.3,0-8.8-2.7-10.1-7.5l-8.4-30.4H112L103.7,618.6z M166.7,503.5c-2.6-8.8-12.8-48.5-12.8-52.9c0-4-0.9-5.3-2.6-5.3
		c-1.8,0-2.6,1.3-2.6,5.3c0,4.4-10.2,44.1-12.8,52.9l-7.1,25.1h45L166.7,503.5z"/>
	<path class="st2" d="M296.9,617.8v-195c0-4.9,3.5-8.4,8.4-8.4h29.6c20.7,0,37.5,7.9,40.1,28.7c11.5-12.8,31.8-31.3,60.9-31.3
		c30,0,47.2,12.8,55.6,34.4c11.9-18.5,35.7-34.4,66.2-34.4c48.1,0,61.3,31.8,61.3,73.7v132.3c0,4.9-3.5,8.4-8.4,8.4h-61.8
		c-4.9,0-8.4-3.5-8.4-8.4V501.3c0-15.4-8.8-19.9-16.8-19.9c-12.4,0-26.5,7.5-26.5,7.5v128.8c0,4.9-3.5,8.4-8.4,8.4H427
		c-4.9,0-8.4-3.5-8.4-8.4V501.3c0-15.4-8.8-19.9-16.8-19.9c-12.4,0-26.5,7.5-26.5,7.5v128.8c0,4.9-3.5,8.4-8.4,8.4h-61.8
		C300.4,626.1,296.9,622.6,296.9,617.8z"/>
	<path class="st3" d="M660.8,617.8v-195c0-4.9,3.5-8.4,8.4-8.4h61.8c4.9,0,8.4,3.5,8.4,8.4v195c0,4.9-3.5,8.4-8.4,8.4h-61.8
		C664.3,626.1,660.8,622.6,660.8,617.8z"/>
	<path class="st4" d="M749.1,652.6c0-25.1,11.5-46.3,34.9-57.8c-4.4-4.4-8.4-12.8-8.4-24.7c0-13.2,5.7-23.8,11-27.8
		c-18.1-11-28.7-31.8-28.7-57.8c0-56,45.4-74.6,95.7-74.6c13.2,0,25.6,2.6,30.9,4.4c11.5-20.7,29.6-34.4,55.1-34.4
		c12.4,0,26,6.2,26,15.9v36.6c0,4.4-3.1,6.6-7.1,6.6c-1.8,0-4-0.9-6.2-1.8c-2.6-1.3-7.5-2.6-12.8-2.6c-3.5,0-7.9,1.3-10.1,2.6
		c9.3,8.8,19.9,27.8,19.9,47.2c0,56-45.4,74.6-95.7,74.6c-2.6,0-6.2-0.4-6.2-0.4c-4.4,1.8-7.5,5.7-7.5,11.5c0,5.3,2.2,8.8,7.1,11
		c0,0,2.2-0.4,7.5-0.4c69.7,0,105.4,26,105.4,71.9c0,45.9-35.7,71.9-105.4,71.9S749.1,698.5,749.1,652.6z M886.8,652.6
		c0-13.2-11-18.1-32.2-18.1c-21.2,0-32.2,4.9-32.2,18.1s11,18.1,32.2,18.1C875.7,670.7,886.8,665.8,886.8,652.6z M876.2,484.5
		c0-20.3-8.8-27.4-22.5-27.4c-13.7,0-22.5,7.1-22.5,27.4c0,20.3,8.8,27.3,22.5,27.3C867.4,511.9,876.2,504.8,876.2,484.5z"/>
	<path class="st5" d="M963.2,509.9c16.8-110.3,84.2-134.4,148.4-124.7c64.1,9.7,121.4,52.8,104.6,163.2
		c-16.8,110.3-84.3,134.9-148.4,125.1C1003.6,663.7,946.4,620.2,963.2,509.9z M1042.6,522c-9.3,61.1,11.6,76.3,36,80
		c24.4,3.7,48.9-4.6,58.2-65.7s-11.7-75.8-36.1-79.6C1076.3,453,1051.9,460.9,1042.6,522"/>
	<g>
		<path class="st6" d="M377.8,254.2l-13.7,3c-4.2,0.9-7.9-1.4-8.8-5.6l-9.6-43.5c-0.9-4.2,1.4-7.9,5.6-8.8l65.2-14.4
			c4.2-0.9,7.9,1.4,8.8,5.6L448.9,297c3.8,17.2-33,35.3-73.1,44.2c-63.3,14-117.5,4-140.7-100.9s24.4-137.8,88.8-152.1
			c30.5-6.7,52.5-4.8,64.7-0.7c6.5,2.2,11.2,5.5,12.4,10.9l9.4,42.7c1.1,5-1,8.2-5.6,9.2c-2.3,0.5-6.6-0.9-11.3-2.3
			c-8.6-2.5-23.8-8-51.6-1.8c-38.5,8.5-47.6,32.5-37.4,78.7c9.9,45,22.4,65.1,58.2,57.1c10.7-2.4,19.5-7.9,17-19L377.8,254.2z"/>
		<path class="st6" d="M450.3,234.3c-4.6-67.4,37.4-100.4,90.8-104.1c53.4-3.7,99.5,23.3,104.1,90.8c4.6,67.4-37.4,100.5-90.8,104.1
			C501,328.7,454.9,301.7,450.3,234.3z M575.8,225.7c-2.1-31.2-14.8-38.1-30.7-37.1c-16,1.1-27.5,9.7-25.4,40.9
			c2.1,31.2,14.8,38.2,30.7,37.1C566.4,265.5,577.9,256.9,575.8,225.7z"/>
		<path class="st6" d="M649.1,63.7l54.6-3.7c4.3-0.3,7.6,2.6,7.9,6.9l4.9,72.1c0.5,6.6-1.2,34.1-2,44.8l-2.7,29.2
			c-0.5,4.7-1.8,7.6-6.1,7.9l-36.6,2.5c-4.3,0.3-6.4-2.3-7.1-7l-6.7-28.5c-2.3-10.4-7.6-37.1-8.1-44.1l-4.9-72.1
			C641.9,67.3,644.8,64,649.1,63.7z M689.1,248.1c18.7-1.3,34.9,12.9,36.2,31.6s-12.9,34.9-31.6,36.2c-18.7,1.3-34.9-12.9-36.2-31.6
			S670.4,249.4,689.1,248.1z"/>
	</g>
</g>
</svg>
